{"meta":{"page":1,"total":30,"pages":2,"perPage":15},"vendors":[{"id":"v001","name":"أستاذ محمد الكهربائي","cat":"maintenance","sub":"كهرباء","icon":"⚡","rating":4.9,"reviews":312,"open":true,"phone":"01012345678","whatsapp":"01012345678","area":"المنيا","address":"شارع جمال عبد الناصر، أمام مسجد النور","lat":28.0871,"lng":30.7618,"desc":"فني كهرباء معتمد بخبرة 15 سنة في كل أعمال الكهرباء المنزلية والتجارية","priceRange":"50–150 ج","experience":"15 سنة","verified":true,"featured":true,"plan":"pro","hours":{"السبت":{"open":true,"from":"08:00","to":"22:00"},"الأحد":{"open":true,"from":"08:00","to":"22:00"},"الاثنين":{"open":true,"from":"08:00","to":"22:00"},"الثلاثاء":{"open":true,"from":"08:00","to":"22:00"},"الأربعاء":{"open":true,"from":"08:00","to":"22:00"},"الخميس":{"open":true,"from":"08:00","to":"22:00"},"الجمعة":{"open":false}},"tags":["موثّق","متاح الآن","طوارئ"],"offer":{"active":true,"pct":47,"code":"ELEC47"}},{"id":"v002","name":"مطعم البيت الكبير","cat":"food","sub":"مطعم","icon":"🍽️","rating":4.7,"reviews":189,"open":true,"phone":"01098765432","whatsapp":"01098765432","area":"ملوي","address":"شارع الجمهورية، ملوي","lat":28.113,"lng":30.844,"desc":"مطعم عيلي متخصص في الأكل الشعبي والمشويات الطازجة مع توصيل منزلي","priceRange":"40–120 ج","experience":"8 سنوات","verified":true,"featured":false,"plan":"basic","hours":{"السبت":{"open":true,"from":"12:00","to":"24:00"},"الأحد":{"open":true,"from":"12:00","to":"24:00"},"الاثنين":{"open":true,"from":"12:00","to":"24:00"},"الثلاثاء":{"open":true,"from":"12:00","to":"24:00"},"الأربعاء":{"open":true,"from":"12:00","to":"24:00"},"الخميس":{"open":true,"from":"12:00","to":"01:00"},"الجمعة":{"open":true,"from":"14:00","to":"24:00"}},"tags":["موثّق","توصيل"],"offer":{"active":true,"pct":33,"code":"BAYT33"}},{"id":"v003","name":"دكتور أحمد — طب عام","cat":"health","sub":"طبيب","icon":"🏥","rating":4.8,"reviews":245,"open":false,"phone":"01156789012","whatsapp":"01156789012","area":"المنيا","address":"شارع بورسعيد، عمارة الأطباء، شقة 3","lat":28.092,"lng":30.758,"desc":"طبيب عام بخبرة 12 سنة، كشف منزلي وعيادة، متخصص في الأمراض الباطنية","priceRange":"50–100 ج","experience":"12 سنة","verified":true,"featured":false,"plan":"basic","hours":{"السبت":{"open":true,"from":"10:00","to":"14:00"},"الأحد":{"open":true,"from":"18:00","to":"22:00"},"الاثنين":{"open":true,"from":"10:00","to":"14:00"},"الثلاثاء":{"open":true,"from":"18:00","to":"22:00"},"الأربعاء":{"open":true,"from":"10:00","to":"14:00"},"الخميس":{"open":false},"الجمعة":{"open":false}},"tags":["موثّق"],"offer":{"active":false}},{"id":"v004","name":"سريع للتوصيل","cat":"delivery","sub":"توصيل","icon":"🛵","rating":4.6,"reviews":98,"open":true,"phone":"01234567890","whatsapp":"01234567890","area":"المنيا","address":"يغطي كل المنيا والمناطق المجاورة","lat":28.085,"lng":30.765,"desc":"خدمة توصيل سريع داخل المنيا — مستندات، طلبات، بقالة، وأكثر","priceRange":"10–30 ج","experience":"3 سنوات","verified":true,"featured":false,"plan":"basic","tags":["موثّق","توصيل سريع"],"offer":{"active":true,"pct":100,"code":"FREE2"}},{"id":"v005","name":"أستاذ عمر — فيزياء وكيمياء","cat":"education","sub":"مدرّس","icon":"📚","rating":4.9,"reviews":421,"open":true,"phone":"01312345678","whatsapp":"01312345678","area":"مغاغة","address":"شارع الجيش، مغاغة","lat":28.231,"lng":30.776,"desc":"مدرّس ثانوي عام معتمد — فيزياء وكيمياء — حصص فردية وجماعية","priceRange":"80–150 ج/حصة","experience":"20 سنة","verified":true,"featured":true,"plan":"pro","tags":["موثّق","الأعلى تقييماً"],"offer":{"active":true,"pct":100,"code":"FREE1"}},{"id":"v006","name":"سوق الجملة المركزي","cat":"market","sub":"سوق","icon":"🛒","rating":4.4,"reviews":203,"open":true,"phone":"01612345678","whatsapp":"01612345678","area":"المنيا","address":"سوق الجملة المركزي، المنيا","lat":28.075,"lng":30.75,"desc":"سوق جملة متكامل — خضروات وفاكهة وبقالة بأسعار الجملة مباشرة","priceRange":"متغير","experience":"25 سنة","verified":false,"featured":false,"plan":"free","tags":["جملة"],"offer":{"active":false}},{"id":"v007","name":"مهندس سباكة معتمد","cat":"maintenance","sub":"سباكة","icon":"🔧","rating":4.7,"reviews":178,"open":true,"phone":"01712345678","whatsapp":"01712345678","area":"مطاي","address":"شارع الصناعة، مطاي","lat":28.156,"lng":30.8,"desc":"سباك محترف — تركيب وإصلاح كل أعمال السباكة المنزلية والتجارية","priceRange":"60–200 ج","experience":"10 سنوات","verified":true,"featured":false,"plan":"basic","tags":["موثّق","طوارئ"],"offer":{"active":true,"pct":50,"code":"PLUMB50"}},{"id":"v008","name":"كشري المنيا الأصلي","cat":"food","sub":"مطعم","icon":"🍲","rating":4.8,"reviews":356,"open":true,"phone":"01812345678","whatsapp":"01812345678","area":"المنيا","address":"ميدان المحطة، المنيا","lat":28.09,"lng":30.762,"desc":"أشهر كشري في المنيا منذ 1985 — كشري بلدي وشعرية بأسعار منافسة","priceRange":"10–25 ج","experience":"40 سنة","verified":true,"featured":true,"plan":"pro","tags":["موثّق","الأكثر طلباً"],"offer":{"active":true,"pct":20,"code":"KOSHARY20"}},{"id":"v009","name":"مختبر الدقة الطبي","cat":"health","sub":"مختبر","icon":"💊","rating":4.6,"reviews":134,"open":false,"phone":"01912345678","whatsapp":"01912345678","area":"المنيا الجديدة","address":"المنيا الجديدة، بجوار مستشفى الأطفال","lat":28.068,"lng":30.772,"desc":"تحاليل طبية شاملة — زيارة منزلية متاحة — نتائج خلال 4 ساعات","priceRange":"40–200 ج","experience":"7 سنوات","verified":true,"featured":false,"plan":"basic","tags":["موثّق","زيارة منزلية"],"offer":{"active":true,"pct":55,"code":"LAB55"}},{"id":"v010","name":"تكييفات الراحة","cat":"maintenance","sub":"تكييف","icon":"❄️","rating":4.8,"reviews":289,"open":true,"phone":"01322345678","whatsapp":"01322345678","area":"ملوي","address":"شارع الجمهورية، ملوي","lat":28.105,"lng":30.835,"desc":"تركيب وصيانة وإصلاح كل أنواع التكييفات — جميع الماركات","priceRange":"100–500 ج","experience":"12 سنة","verified":true,"featured":false,"plan":"basic","tags":["موثّق"],"offer":{"active":true,"pct":50,"code":"COOL50"}},{"id":"v011","name":"مطعم الشاورما","cat":"food","sub":"مطعم","icon":"🥙","rating":4.6,"reviews":142,"open":true,"phone":"01422345678","whatsapp":"01422345678","area":"مغاغة","address":"شارع النيل، مغاغة","lat":28.228,"lng":30.78,"desc":"شاورما وساندوتشات بمكونات طازجة يومياً — توصيل للمنازل","priceRange":"20–60 ج","experience":"5 سنوات","verified":false,"featured":false,"plan":"free","tags":["توصيل"],"offer":{"active":true,"pct":37,"code":"SHAWRMA"}},{"id":"v012","name":"دكتور ياسر — أطفال","cat":"health","sub":"طبيب أطفال","icon":"👶","rating":4.9,"reviews":521,"open":true,"phone":"01522345678","whatsapp":"01522345678","area":"المنيا","address":"شارع بور سعيد، عيادة الأطفال","lat":28.083,"lng":30.759,"desc":"استشاري أطفال وحديثي الولادة — عيادة وزيارة منزلية","priceRange":"80–150 ج","experience":"18 سنة","verified":true,"featured":true,"plan":"pro","tags":["موثّق","الأعلى تقييماً"],"offer":{"active":false}},{"id":"v013","name":"أستاذة هبة — لغة إنجليزية","cat":"education","sub":"مدرّسة","icon":"🎓","rating":4.7,"reviews":198,"open":true,"phone":"01122345678","whatsapp":"01122345678","area":"المنيا الجديدة","address":"المنيا الجديدة","lat":28.072,"lng":30.77,"desc":"معلمة لغة إنجليزية معتمدة — ابتدائي وإعدادي وثانوي — أونلاين ومنزلي","priceRange":"60–100 ج/حصة","experience":"9 سنوات","verified":true,"featured":false,"plan":"basic","tags":["موثّق","أونلاين"],"offer":{"active":false}},{"id":"v014","name":"بقالة الأمل","cat":"market","sub":"بقالة","icon":"🛍️","rating":4.3,"reviews":87,"open":true,"phone":"01022345678","whatsapp":"01022345678","area":"سمالوط","address":"شارع الوحدة، سمالوط","lat":28.31,"lng":30.712,"desc":"بقالة متكاملة — توصيل للمنازل في سمالوط — طلب عبر واتساب","priceRange":"متغير","experience":"6 سنوات","verified":false,"featured":false,"plan":"free","tags":["توصيل"],"offer":{"active":false}},{"id":"v015","name":"محمود — نجار أثاث","cat":"maintenance","sub":"نجارة","icon":"🪵","rating":4.6,"reviews":154,"open":true,"phone":"01932345678","whatsapp":"01932345678","area":"بني مزار","address":"حي الصناعات، بني مزار","lat":28.498,"lng":30.654,"desc":"نجار أثاث خشبي ومودرن — تصنيع وإصلاح وتجديد الأثاث القديم","priceRange":"100–1000 ج","experience":"22 سنة","verified":true,"featured":false,"plan":"basic","tags":["موثّق"],"offer":{"active":false}}]}